<?xml version="1.0" ?>
<sdf version="1.5">
  <world name="tank_world">

    <include>
      <uri>model://sun</uri>
    </include>

    <include>
      <uri>model://ground_plane</uri>
    </include>

  </world>
</sdf>
