<?xml version="1.0"?>
<robot name="tank" xmlns:xacro="http://www.ros.org/wiki/xacro">
  
  <xacro:property name="camera_link" value="0.05" />
  <xacro:property name="wheel_damping" value="0.7" />
  <xacro:property name="wheel_friction" value="50" />

  <xacro:include filename="$(find tank_description)/urdf/tank.gazebo" />
  <xacro:include filename="$(find tank_description)/urdf/materials.xacro" />

  <link name="base_link">
      <visual>
        <origin rpy="0.0 0 0" xyz="0 0 1.1"/>
        <geometry>
          <mesh filename="package://tank_description/meshes/base.stl" 
			scale="1 1 1"/>
        </geometry>
        <material name="grey">
          <color rgba="0.6 0.6 .6 1"/>
        </material>
      </visual>
      <collision>
	  <origin rpy="0.0 0 0" xyz="0 0 1.1"/>
          <geometry>
            <mesh filename="package://tank_description/meshes/collisionbase.stl"/>
          </geometry>
      </collision>
      <inertial>
          <mass value="2500"/>
          <inertia ixx="3786.9" ixy="0.0" ixz="0.0" iyy="1662" iyz="0.0" izz="4515.2"/>
      </inertial>
  </link>
  
  <link name="top">
      <visual name="visual">
      <origin rpy="0 0 0" xyz="0 0 0"/>
        <geometry>
          <mesh filename="package://tank_description/meshes/top.stl" 
			scale="1 1 1"/>
        </geometry>
        
        <material name="lightgrey">
          <color rgba="0.8 0.8 .8 1"/>
        </material>
      </visual>
      <collision>
	  <origin rpy="0 0 0" xyz="0 0 0"/>
          <geometry>
            <mesh filename="package://tank_description/meshes/collisiontop.stl"/>
          </geometry>
      </collision>
      <inertial>
          <mass value="1000"/>
          <inertia ixx="292" ixy="0.0" ixz="0.0" iyy="292" iyz="0.0" izz="484"/>
      </inertial>
  </link>

  <link name="front_left">
    <visual name="visual">
      <origin rpy="0 3.14 0" xyz="0 0 0"/>
        <geometry>
          <mesh filename="package://tank_description/meshes/wheel.stl" 
			scale="1 1 1"/>
        </geometry>

        <material name="darkgrey">
          <color rgba="0.4 0.4 .4 1"/>
        </material>
      </visual>
      <collision>
	  <origin rpy="0 3.14 0" xyz="0 0 0"/>
          <friction>
              <ode>
                  <mu>0.1</mu>
                  <mu2>0.1</mu2>
              </ode>
          </friction>
          <geometry>
            <mesh filename="package://tank_description/meshes/collisionwheel.stl"/>
          </geometry>
      </collision>
      <inertial>
          <mass value="500"/>
          <inertia ixx="72.6" ixy="0.0" ixz="0.0" iyy="72.6" iyz="0.0" izz="37.5"/>
      </inertial>
  </link>

  <link name="front_right">
      <visual name="visual">
        <origin rpy="0.0 0 0" xyz="0 0 0"/>
        <geometry>
          <mesh filename="package://tank_description/meshes/wheel.stl" 
			scale="1 1 1"/>
        </geometry>
        
        <material name="darkgrey"/>
      </visual>
      <collision>
          <friction>
              <ode>
                  <mu>0.1</mu>
                  <mu2>0.1</mu2>
              </ode>
          </friction>
	  <origin rpy="0.0 0 0" xyz="0 0 0"/>
          <geometry>
            <mesh filename="package://tank_description/meshes/collisionwheel.stl"/>
          </geometry>
      </collision>
      <inertial>
          <mass value="500"/>
          <inertia ixx="72.6" ixy="0.0" ixz="0.0" iyy="72.6" iyz="0.0" izz="37.5"/>
      </inertial>
  </link>

  <link name="back_left">
      <visual name="visual">
        <origin rpy="0 3.14 0" xyz="0 0 0"/>
        <geometry>
          <mesh filename="package://tank_description/meshes/wheel.stl" 
			scale="1 1 1"/>
        </geometry>

        <material name="darkgrey"/>
      </visual>
      <collision>
          <friction>
              <ode>
                  <mu>0.1</mu>
                  <mu2>0.1</mu2>
              </ode>
          </friction>
	  <origin rpy="0 3.14 0" xyz="0 0 0"/>
          <geometry>
            <mesh filename="package://tank_description/meshes/collisionwheel.stl"/>
          </geometry>
      </collision>
      <inertial>
          <mass value="500"/>
          <inertia ixx="72.6" ixy="0.0" ixz="0.0" iyy="72.6" iyz="0.0" izz="37.5"/>
      </inertial>
  </link>

  <link name="back_right">
      <visual name="visual">
        <origin rpy="0.0 0 0" xyz="0 0 0"/>
        <geometry>
          <mesh filename="package://tank_description/meshes/wheel.stl" 
			scale="1 1 1"/>
        </geometry>
        
        <material name="darkgrey"/>
      </visual>
      <collision>
          <friction>
              <ode>
                  <mu>0.1</mu>
                  <mu2>0.1</mu2>
              </ode>
          </friction>
	  <origin rpy="0.0 0 0" xyz="0 0 0"/>
          <geometry>
            <mesh filename="package://tank_description/meshes/collisionwheel.stl"/>
          </geometry>
      </collision>
      <inertial>
          <mass value="500"/>
          <inertia ixx="72.6" ixy="0.0" ixz="0.0" iyy="72.6" iyz="0.0" izz="37.5"/>
      </inertial>
  </link>

  <link name="camera_link">
    <collision>
      <origin xyz="0 0 0" rpy="0 0 0"/>
      <geometry>
	<box size="${camera_link} ${camera_link} ${camera_link}"/>
      </geometry>
    </collision>

    <visual>
      <origin xyz="0 0 0" rpy="0 0 0"/>
      <geometry>
	<box size="${camera_link} ${camera_link} ${camera_link}"/>
      </geometry>
      <material name="red"/>
    </visual>

    <inertial>
      <mass value="1e-5" />
      <origin xyz="0 0 0" rpy="0 0 0"/>
      <inertia ixx="1e-6" ixy="0" ixz="0" iyy="1e-6" iyz="0" izz="1e-6" />
    </inertial>
  </link>

  <joint name="camera_joint" type="fixed">
    <axis xyz="0 1 0" />
    <origin xyz="${camera_link} 0 1" rpy="0 0 -1.57"/>
    <parent link="top"/>
    <child link="camera_link"/>
  </joint>

  <joint name="top_base_joint" type="continuous">
    <parent link="base_link"/>
    <child link="top"/>
    <origin xyz="0 0.45 2.0" rpy="0 0 0"/>
    <axis xyz="0 0 1"/>   
    <dynamics damping="0.8" friction="100"/>
  </joint>

  <joint name="front_left_base_joint" type="continuous">
    <parent link="base_link"/>
    <child link="front_left"/>
    <origin xyz="1.4 -1.24 0.4" rpy="0 0 0"/>
    <axis xyz="1 0 0"/>  
    <dynamics damping="${wheel_damping}" friction="${wheel_friction}"/>
  </joint>

  <joint name="front_right_base_joint" type="continuous">
    <parent link="base_link"/>
    <child link="front_right"/>
    <origin xyz="-1.4 -1.24 0.4" rpy="0 0 0"/>
    <axis xyz="1 0 0"/>  
    <dynamics damping="${wheel_damping}" friction="${wheel_friction}"/>
  </joint>

  <joint name="back_left_base_joint" type="continuous">
    <parent link="base_link"/>
    <child link="back_left"/>
    <origin xyz="1.4 1.14 0.4" rpy="0 0 0"/>
    <axis xyz="1 0 0"/> 
    <dynamics damping="${wheel_damping}" friction="${wheel_friction}"/> 
  </joint>

  <joint name="back_right_base_joint" type="continuous">
    <parent link="base_link"/>
    <child link="back_right"/>
    <origin xyz="-1.4 1.14 0.4" rpy="0 0 0"/>
    <axis xyz="1 0 0"/>
    <dynamics damping="${wheel_damping}" friction="${wheel_friction}"/>
  </joint>

  <transmission name="tran_top">
    <type>transmission_interface/SimpleTransmission</type>
    <joint name="joint_top">
      <hardwareInterface>EffortJointInterface</hardwareInterface>
    </joint>
    <actuator name="motor_top">
      <hardwareInterface>EffortJointInterface</hardwareInterface>
      <mechanicalReduction>1</mechanicalReduction>
    </actuator>
  </transmission>

  <transmission name="tran_forward_left">
    <type>transmission_interface/SimpleTransmission</type>
    <joint name="joint_forward_left">
      <hardwareInterface>EffortJointInterface</hardwareInterface>
    </joint>
    <actuator name="motor_forward_left">
      <hardwareInterface>EffortJointInterface</hardwareInterface>
      <mechanicalReduction>1</mechanicalReduction>
    </actuator>
  </transmission>

  <transmission name="tran_forward_right">
    <type>transmission_interface/SimpleTransmission</type>
    <joint name="joint_forward_right">
      <hardwareInterface>EffortJointInterface</hardwareInterface>
    </joint>
    <actuator name="motor_forward_right">
      <hardwareInterface>EffortJointInterface</hardwareInterface>
      <mechanicalReduction>1</mechanicalReduction>
    </actuator>
  </transmission>

  <transmission name="tran_back_left">
    <type>transmission_interface/SimpleTransmission</type>
    <joint name="joint_back_left">
      <hardwareInterface>EffortJointInterface</hardwareInterface>
    </joint>
    <actuator name="motor_back_left">
      <hardwareInterface>EffortJointInterface</hardwareInterface>
      <mechanicalReduction>1</mechanicalReduction>
    </actuator>
  </transmission>

  <transmission name="tran_back_right">
    <type>transmission_interface/SimpleTransmission</type>
    <joint name="joint_back_right">
      <hardwareInterface>EffortJointInterface</hardwareInterface>
    </joint>
    <actuator name="motor_back_right">
      <hardwareInterface>EffortJointInterface</hardwareInterface>
      <mechanicalReduction>1</mechanicalReduction>
    </actuator>
  </transmission>

</robot>
