<?xml version="1.0" ?>
<!-- =================================================================================== -->
<!-- |    This document was autogenerated by xacro from tank.xacro                     | -->
<!-- |    EDITING THIS FILE BY HAND IS NOT RECOMMENDED                                 | -->
<!-- =================================================================================== -->
<robot name="tank" xmlns:xacro="http://www.ros.org/wiki/xacro">
  <gazebo reference="base_link">
    <gravity>true</gravity>
    <material>Gazebo/Green</material>
  </gazebo>
  <gazebo reference="top">
    <gravity>true</gravity>
    <sensor name="laser_sensor" type="depth">
      <pose>0 -1.5 0 0 0 0</pose>
      <always_on>true</always_on>
      <update_rate>30</update_rate>
      <visualize>true</visualize>
      <camera>
        <horizontal_fov>1.047198</horizontal_fov>
        <image>
          <width>640</width>
          <height>480</height>
          <format>R8G8B8</format>
        </image>
        <clip>
          <near>1</near>
          <far>10</far>
        </clip>
      </camera>
    </sensor>
    <material>Gazebo/Blue</material>
  </gazebo>
  <gazebo reference="front_left">
    <gravity>true</gravity>
    <material>Gazebo/Red</material>
  </gazebo>
  <gazebo reference="front_right">
    <gravity>true</gravity>
    <material>Gazebo/Red</material>
  </gazebo>
  <gazebo reference="back_left">
    <gravity>true</gravity>
    <material>Gazebo/Red</material>
  </gazebo>
  <gazebo reference="back_right">
    <gravity>true</gravity>
    <material>Gazebo/Red</material>
  </gazebo>
  <gazebo reference="camera_link">
    <mu1>0.2</mu1>
    <mu2>0.2</mu2>
    <material>Gazebo/Red</material>
  </gazebo>
  <gazebo reference="camera_link">
    <sensor name="camera1" type="camera">
      <update_rate>30.0</update_rate>
      <camera name="head">
        <horizontal_fov>1.3962634</horizontal_fov>
        <image>
          <width>800</width>
          <height>800</height>
          <format>R8G8B8</format>
        </image>
        <clip>
          <near>0.02</near>
          <far>300</far>
        </clip>
        <noise>
          <type>gaussian</type>
          <mean>0.0</mean>
          <stddev>0.007</stddev>
        </noise>
      </camera>
      <plugin filename="libgazebo_ros_camera.so" name="camera_controller">
        <alwaysOn>true</alwaysOn>
        <updateRate>0.0</updateRate>
        <cameraName>tank/camera1</cameraName>
        <imageTopicName>image_raw</imageTopicName>
        <cameraInfoTopicName>camera_info</cameraInfoTopicName>
        <frameName>camera_link</frameName>
        <hackBaseline>0.07</hackBaseline>
        <distortionK1>0.0</distortionK1>
        <distortionK2>0.0</distortionK2>
        <distortionK3>0.0</distortionK3>
        <distortionT1>0.0</distortionT1>
        <distortionT2>0.0</distortionT2>
      </plugin>
    </sensor>
  </gazebo>
  <gazebo>
    <plugin filename="libtank_gazebo.so" name="tank_gazebo">
      <left_front_wheel>tank/front_left_base_joint</left_front_wheel>
      <right_front_wheel>tank/front_right_base_joint</right_front_wheel>
      <left_back_wheel>tank/back_left_base_joint</left_back_wheel>
      <right_back_wheel>tank/back_right_base_joint</right_back_wheel>
      <topic>~/tank</topic>
    </plugin>
  </gazebo>
  <material name="black">
    <color rgba="0.0 0.0 0.0 1.0"/>
  </material>
  <material name="blue">
    <color rgba="0.0 0.0 0.8 1.0"/>
  </material>
  <material name="green">
    <color rgba="0.0 0.8 0.0 1.0"/>
  </material>
  <material name="grey">
    <color rgba="0.2 0.2 0.2 1.0"/>
  </material>
  <material name="orange">
    <color rgba="1.0 0.423529411765 0.0392156862745 1.0"/>
  </material>
  <material name="brown">
    <color rgba="0.870588235294 0.811764705882 0.764705882353 1.0"/>
  </material>
  <material name="red">
    <color rgba="0.8 0.0 0.0 1.0"/>
  </material>
  <material name="white">
    <color rgba="1.0 1.0 1.0 1.0"/>
  </material>
  <link name="base_link">
    <visual>
      <origin rpy="0.0 0 0" xyz="0 0 1.1"/>
      <geometry>
        <mesh filename="package://tank_description/meshes/base.stl" scale="1 1 1"/>
      </geometry>
      <material name="grey">
        <color rgba="0.6 0.6 .6 1"/>
      </material>
    </visual>
    <collision>
      <origin rpy="0.0 0 0" xyz="0 0 1.1"/>
      <geometry>
        <mesh filename="package://tank_description/meshes/collisionbase.stl"/>
      </geometry>
    </collision>
    <inertial>
      <mass value="2500"/>
      <inertia ixx="3786.9" ixy="0.0" ixz="0.0" iyy="1662" iyz="0.0" izz="4515.2"/>
    </inertial>
  </link>
  <link name="top">
    <visual name="visual">
      <origin rpy="0 0 0" xyz="0 0 0"/>
      <geometry>
        <mesh filename="package://tank_description/meshes/top.stl" scale="1 1 1"/>
      </geometry>
      <material name="lightgrey">
        <color rgba="0.8 0.8 .8 1"/>
      </material>
    </visual>
    <collision>
      <origin rpy="0 0 0" xyz="0 0 0"/>
      <geometry>
        <mesh filename="package://tank_description/meshes/collisiontop.stl"/>
      </geometry>
    </collision>
    <inertial>
      <mass value="1000"/>
      <inertia ixx="292" ixy="0.0" ixz="0.0" iyy="292" iyz="0.0" izz="484"/>
    </inertial>
  </link>
  <link name="front_left">
    <visual name="visual">
      <origin rpy="0 3.14 0" xyz="0 0 0"/>
      <geometry>
        <mesh filename="package://tank_description/meshes/wheel.stl" scale="1 1 1"/>
      </geometry>
      <material name="darkgrey">
        <color rgba="0.4 0.4 .4 1"/>
      </material>
    </visual>
    <collision>
      <origin rpy="0 3.14 0" xyz="0 0 0"/>
      <geometry>
        <mesh filename="package://tank_description/meshes/collisionwheel.stl"/>
      </geometry>
    </collision>
    <inertial>
      <mass value="500"/>
      <inertia ixx="72.6" ixy="0.0" ixz="0.0" iyy="72.6" iyz="0.0" izz="37.5"/>
    </inertial>
  </link>
  <link name="front_right">
    <visual name="visual">
      <origin rpy="0.0 0 0" xyz="0 0 0"/>
      <geometry>
        <mesh filename="package://tank_description/meshes/wheel.stl" scale="1 1 1"/>
      </geometry>
      <material name="darkgrey"/>
    </visual>
    <collision>
      <origin rpy="0.0 0 0" xyz="0 0 0"/>
      <geometry>
        <mesh filename="package://tank_description/meshes/collisionwheel.stl"/>
      </geometry>
    </collision>
    <inertial>
      <mass value="500"/>
      <inertia ixx="72.6" ixy="0.0" ixz="0.0" iyy="72.6" iyz="0.0" izz="37.5"/>
    </inertial>
  </link>
  <link name="back_left">
    <visual name="visual">
      <origin rpy="0 3.14 0" xyz="0 0 0"/>
      <geometry>
        <mesh filename="package://tank_description/meshes/wheel.stl" scale="1 1 1"/>
      </geometry>
      <material name="darkgrey"/>
    </visual>
    <collision>
      <origin rpy="0 3.14 0" xyz="0 0 0"/>
      <geometry>
        <mesh filename="package://tank_description/meshes/collisionwheel.stl"/>
      </geometry>
    </collision>
    <inertial>
      <mass value="500"/>
      <inertia ixx="72.6" ixy="0.0" ixz="0.0" iyy="72.6" iyz="0.0" izz="37.5"/>
    </inertial>
  </link>
  <link name="back_right">
    <visual name="visual">
      <origin rpy="0.0 0 0" xyz="0 0 0"/>
      <geometry>
        <mesh filename="package://tank_description/meshes/wheel.stl" scale="1 1 1"/>
      </geometry>
      <material name="darkgrey"/>
    </visual>
    <collision>
      <origin rpy="0.0 0 0" xyz="0 0 0"/>
      <geometry>
        <mesh filename="package://tank_description/meshes/collisionwheel.stl"/>
      </geometry>
    </collision>
    <inertial>
      <mass value="500"/>
      <inertia ixx="72.6" ixy="0.0" ixz="0.0" iyy="72.6" iyz="0.0" izz="37.5"/>
    </inertial>
  </link>
  <link name="camera_link">
    <collision>
      <origin rpy="0 0 0" xyz="0 0 0"/>
      <geometry>
        <box size="0.05 0.05 0.05"/>
      </geometry>
    </collision>
    <visual>
      <origin rpy="0 0 0" xyz="0 0 0"/>
      <geometry>
        <box size="0.05 0.05 0.05"/>
      </geometry>
      <material name="red"/>
    </visual>
    <inertial>
      <mass value="1e-5"/>
      <origin rpy="0 0 0" xyz="0 0 0"/>
      <inertia ixx="1e-6" ixy="0" ixz="0" iyy="1e-6" iyz="0" izz="1e-6"/>
    </inertial>
  </link>
  <joint name="camera_joint" type="fixed">
    <axis xyz="0 1 0"/>
    <origin rpy="0 0 -1.57" xyz="0.05 0 1"/>
    <parent link="top"/>
    <child link="camera_link"/>
  </joint>
  <joint name="top_base_joint" type="continuous">
    <parent link="base_link"/>
    <child link="top"/>
    <origin rpy="0 0 0" xyz="0 0.45 2.0"/>
    <axis xyz="0 0 1"/>
    <dynamics damping="0.5"/>
  </joint>
  <joint name="front_left_base_joint" type="continuous">
    <parent link="base_link"/>
    <child link="front_left"/>
    <origin rpy="0 0 0" xyz="1.4 -1.24 0.4"/>
    <axis xyz="1 0 0"/>
    <dynamics damping="0.7"/>
  </joint>
  <joint name="front_right_base_joint" type="continuous">
    <parent link="base_link"/>
    <child link="front_right"/>
    <origin rpy="0 0 0" xyz="-1.4 -1.24 0.4"/>
    <axis xyz="1 0 0"/>
    <dynamics damping="0.7"/>
  </joint>
  <joint name="back_left_base_joint" type="continuous">
    <parent link="base_link"/>
    <child link="back_left"/>
    <origin rpy="0 0 0" xyz="1.4 1.14 0.4"/>
    <axis xyz="1 0 0"/>
    <dynamics damping="0.7"/>
  </joint>
  <joint name="back_right_base_joint" type="continuous">
    <parent link="base_link"/>
    <child link="back_right"/>
    <origin rpy="0 0 0" xyz="-1.4 1.14 0.4"/>
    <axis xyz="1 0 0"/>
    <dynamics damping="0.7"/>
  </joint>
  <transmission name="tran_top">
    <type>transmission_interface/SimpleTransmission</type>
    <joint name="joint_top">
      <hardwareInterface>EffortJointInterface</hardwareInterface>
    </joint>
    <actuator name="motor_top">
      <hardwareInterface>EffortJointInterface</hardwareInterface>
      <mechanicalReduction>1</mechanicalReduction>
    </actuator>
  </transmission>
  <transmission name="tran_forward_left">
    <type>transmission_interface/SimpleTransmission</type>
    <joint name="joint_forward_left">
      <hardwareInterface>EffortJointInterface</hardwareInterface>
    </joint>
    <actuator name="motor_forward_left">
      <hardwareInterface>EffortJointInterface</hardwareInterface>
      <mechanicalReduction>1</mechanicalReduction>
    </actuator>
  </transmission>
  <transmission name="tran_forward_right">
    <type>transmission_interface/SimpleTransmission</type>
    <joint name="joint_forward_right">
      <hardwareInterface>EffortJointInterface</hardwareInterface>
    </joint>
    <actuator name="motor_forward_right">
      <hardwareInterface>EffortJointInterface</hardwareInterface>
      <mechanicalReduction>1</mechanicalReduction>
    </actuator>
  </transmission>
  <transmission name="tran_back_left">
    <type>transmission_interface/SimpleTransmission</type>
    <joint name="joint_back_left">
      <hardwareInterface>EffortJointInterface</hardwareInterface>
    </joint>
    <actuator name="motor_back_left">
      <hardwareInterface>EffortJointInterface</hardwareInterface>
      <mechanicalReduction>1</mechanicalReduction>
    </actuator>
  </transmission>
  <transmission name="tran_back_right">
    <type>transmission_interface/SimpleTransmission</type>
    <joint name="joint_back_right">
      <hardwareInterface>EffortJointInterface</hardwareInterface>
    </joint>
    <actuator name="motor_back_right">
      <hardwareInterface>EffortJointInterface</hardwareInterface>
      <mechanicalReduction>1</mechanicalReduction>
    </actuator>
  </transmission>
</robot>
