frameid:-1-timestamp:0-hands:0-fingers:0-
frameid:204458-timestamp:1454905013183994-hands:0-fingers:0-
frameid:204461-timestamp:1454905013283861-hands:0-fingers:0-
frameid:204463-timestamp:1454905013350491-hands:0-fingers:0-
frameid:204468-timestamp:1454905013467798-hands:0-fingers:0-
frameid:204471-timestamp:1454905013567771-hands:0-fingers:0-
frameid:204474-timestamp:1454905013667627-hands:0-fingers:0-
frameid:204477-timestamp:1454905013767544-hands:0-fingers:0-
frameid:204480-timestamp:1454905013867557-hands:0-fingers:0-
frameid:204482-timestamp:1454905013934177-hands:0-fingers:0-
frameid:204484-timestamp:1454905014067483-hands:0-fingers:0-
frameid:204487-timestamp:1454905014167304-hands:0-fingers:0-
frameid:204490-timestamp:1454905014267276-hands:0-fingers:0-
frameid:204493-timestamp:1454905014367261-hands:0-fingers:0-
frameid:204496-timestamp:1454905014467153-hands:0-fingers:0-
frameid:204499-timestamp:1454905014567142-hands:0-fingers:0-
frameid:204502-timestamp:1454905014667089-hands:0-fingers:0-
frameid:204505-timestamp:1454905014767007-hands:0-fingers:0-
frameid:204508-timestamp:1454905014866910-hands:0-fingers:0-
